// Jest Snapshot v1, https://goo.gl/fbAQLP

exports[`Modal renders snapshot normaly 1`] = `
<DocumentFragment>
  <div
    class="modal-fade"
    style="background: rgba(0, 0, 0, 0.5);"
  >
    <button
      class="round-button preview-button"
      data-testid=""
      style="color: rgb(31, 154, 255); font-size: 3rem;"
    >
      <svg
        fill="currentColor"
        height="1em"
        stroke="currentColor"
        stroke-width="0"
        viewBox="0 0 1024 1024"
        width="1em"
        xmlns="http://www.w3.org/2000/svg"
      >
        <path
          d="M942.2 486.2C847.4 286.5 704.1 186 512 186c-192.2 0-335.4 100.5-430.2 300.3a60.3 60.3 0 0 0 0 51.5C176.6 737.5 319.9 838 512 838c192.2 0 335.4-100.5 430.2-300.3 7.7-16.2 7.7-35 0-51.5zM512 766c-161.3 0-279.4-81.8-362.7-254C232.6 339.8 350.7 258 512 258c161.3 0 279.4 81.8 362.7 254C791.5 684.2 673.4 766 512 766zm-4-430c-97.2 0-176 78.8-176 176s78.8 176 176 176 176-78.8 176-176-78.8-176-176-176zm0 288c-61.9 0-112-50.1-112-112s50.1-112 112-112 112 50.1 112 112-50.1 112-112 112z"
        />
      </svg>
    </button>
    <div
      class="modal-container"
    >
      <span
        class="modal-title"
      >
        Build a new Planet
      </span>
      <form>
        <input
          class="form-item"
          placeholder="Name"
          required=""
          type="text"
          value=""
        />
        <input
          class="form-item"
          placeholder="Diameter"
          required=""
          type="number"
          value="0"
        />
        <input
          class="form-item"
          placeholder="Rotating Speed"
          required=""
          type="number"
          value="0"
        />
        <div
          class="form-end"
        >
          <input
            class="form-item"
            placeholder="Color"
            required=""
            type="color"
            value="#ffffff"
          />
          <div
            class="form-buttons"
          >
            <button
              class="form-button "
              style="font-size: 2.5rem;"
              type="submit"
            >
              <svg
                fill="currentColor"
                height="1em"
                stroke="currentColor"
                stroke-width="0"
                viewBox="0 0 1024 1024"
                width="1em"
                xmlns="http://www.w3.org/2000/svg"
              >
                <path
                  d="M912 190h-69.9c-9.8 0-19.1 4.5-25.1 12.2L404.7 724.5 207 474a32 32 0 0 0-25.1-12.2H112c-6.7 0-10.4 7.7-6.3 12.9l273.9 347c12.8 16.2 37.4 16.2 50.3 0l488.4-618.9c4.1-5.1.4-12.8-6.3-12.8z"
                />
              </svg>
            </button>
            <button
              class="form-button "
              style="font-size: 2.5rem;"
              type="reset"
            >
              <svg
                fill="currentColor"
                height="1em"
                stroke="currentColor"
                stroke-width="0"
                viewBox="0 0 1024 1024"
                width="1em"
                xmlns="http://www.w3.org/2000/svg"
              >
                <path
                  d="M563.8 512l262.5-312.9c4.4-5.2.7-13.1-6.1-13.1h-79.8c-4.7 0-9.2 2.1-12.3 5.7L511.6 449.8 295.1 191.7c-3-3.6-7.5-5.7-12.3-5.7H203c-6.8 0-10.5 7.9-6.1 13.1L459.4 512 196.9 824.9A7.95 7.95 0 0 0 203 838h79.8c4.7 0 9.2-2.1 12.3-5.7l216.5-258.1 216.5 258.1c3 3.6 7.5 5.7 12.3 5.7h79.8c6.8 0 10.5-7.9 6.1-13.1L563.8 512z"
                />
              </svg>
            </button>
          </div>
        </div>
      </form>
    </div>
  </div>
</DocumentFragment>
`;
